…
``` r
if( !require("pacman")) install.packages("pacman")
pacman::p_load(rvest, tidyverse, anytime)
```

Here are the data-sets created:

-   Fighter Data

``` r
load("data/UFC_Fighters.rda")
as_tibble(df_fighters_full)
```

    ## # A tibble: 3,673 x 20
    ##    First_Name Last_Name Nickname Height Weight Reach Stance  Wins Losses Other
    ##    <chr>      <chr>     <chr>     <dbl> <chr>  <dbl> <chr>  <int>  <int> <int>
    ##  1 Tom        Aaron     ""        NA    155     NA   ""         5      3     0
    ##  2 Danny      Abbadi    "The As~   1.80 155     NA   "Orth~     4      6     0
    ##  3 David      Abbott    "Tank"     1.83 265     NA   "Swit~    10     15     0
    ##  4 Shamil     Abdurakh~ "Abrek"    1.91 235     19.3 "Orth~    20      5     0
    ##  5 Hiroyuki   Abe       "Abe An~   1.68 145     NA   "Orth~     8     15     3
    ##  6 Daichi     Abe       ""         1.80 170     18.0 "Orth~     6      2     0
    ##  7 Papy       Abedi     "Makamb~   1.80 185     NA   "Sout~    10      4     0
    ##  8 Ricardo    Abreu     "Dement~   1.80 185     NA   "Orth~     5      1     0
    ##  9 Klidson    Abreu     "White ~   1.83 205     18.8 "Orth~    15      4     0
    ## 10 Daniel     Acacio    ""         1.73 180     NA   "Orth~    30     18     0
    ## # ... with 3,663 more rows, and 10 more variables: url <chr>, DOB <date>,
    ## #   SLpM <dbl>, Str_Acc <dbl>, SApM <dbl>, Str_Def <dbl>, TD_Avg <dbl>,
    ## #   TD_Acc <dbl>, TD_Def <dbl>, Sub_Avg <dbl>
…
